%YAML 1.1
%TAG !u! tag:unity3d.com,2011:
--- !u!114 &-1664647901968628101
MonoBehaviour:
  m_ObjectHideFlags: 11
  m_CorrespondingSourceObject: {fileID: 0}
  m_PrefabInstance: {fileID: 0}
  m_PrefabAsset: {fileID: 0}
  m_GameObject: {fileID: 0}
  m_Enabled: 1
  m_EditorHideFlags: 0
  m_Script: {fileID: 11500000, guid: d0353a89b1f911e48b9e16bdc9f2e058, type: 3}
  m_Name: 
  m_EditorClassIdentifier: 
  version: 5
--- !u!21 &2100000
Material:
  serializedVersion: 8
  m_ObjectHideFlags: 0
  m_CorrespondingSourceObject: {fileID: 0}
  m_PrefabInstance: {fileID: 0}
  m_PrefabAsset: {fileID: 0}
  m_Name: Procedural Planet Skybox
  m_Shader: {fileID: -6465566751694194690, guid: 3e7c4af8b597a5f498c6725ee934bede,
    type: 3}
  m_ValidKeywords: []
  m_InvalidKeywords:
  - _SUNDISK_HIGH_QUALITY
  m_LightmapFlags: 4
  m_EnableInstancingVariants: 0
  m_DoubleSidedGI: 0
  m_CustomRenderQueue: -1
  stringTagMap: {}
  disabledShaderPasses: []
  m_SavedProperties:
    serializedVersion: 3
    m_TexEnvs:
    - Texture2D_B246A6A8:
        m_Texture: {fileID: 2800000, guid: 7f754bb798c9a774a9398a0b9decee68, type: 3}
        m_Scale: {x: 1, y: 1}
        m_Offset: {x: 0, y: 0}
    m_Ints: []
    m_Floats:
    - Boolean_CBB8C8C2: 0
    - Vector1_41A9144B: -0.02
    - Vector1_68EA6CEA: 29.32
    - Vector1_A4C16DB4: 1
    - Vector1_ABCB5A26: 1
    - Vector1_FE975026: 0.25
    - _SunLightIntensity: 1
    m_Colors:
    - Color_70654574: {r: 3.670588, g: 2.760784, b: 1.129412, a: 1}
    - Color_88B494BD: {r: 0.088999644, g: 0.12702447, b: 0.1509434, a: 1}
    - Color_ECD0853B: {r: 0.122641504, g: 0.122641504, b: 0.122641504, a: 1}
    - Color_F427754A: {r: 0, g: 0, b: 0, a: 1}
    - Vector3_6B9A3B64: {r: -4.77, g: -4.94, b: 0.74, a: 0}
    - _SunLightIntensity: {r: 3.670588, g: 2.760784, b: 1.129412, a: 1}
  m_BuildTextureStacks: []
